{
  "AWSTemplateFormatVersion": "2010-09-09",
  "Description": "Template for S3 bucket for storing beltweet images",
  "Resources": {
    "S3Bucket": {
      "Type": "AWS::S3::Bucket",
      "Description": "S3 bucket creation",
      "Properties": {
        "AccessControl": "Private",
        "PublicAccessBlockConfiguration": {
          "BlockPublicAcls": true,
          "BlockPublicPolicy": true,
          "IgnorePublicAcls": true,
          "RestrictPublicBuckets": true
        },
        "BucketEncryption": {
          "ServerSideEncryptionConfiguration": [
            {
              "ServerSideEncryptionByDefault": {
                "SSEAlgorithm": "AES256"
              }
            }
          ]
        },
        "VersioningConfiguration": {
          "Status": "Enabled"
        }
      }
    }
  },
  "Outputs": {
    "S3Bucket": {
      "Description": "Bucket Created using this template.",
      "Value": {
        "Ref": "S3Bucket"
      }
    }
  }
}